/*!
  * Bootstrap v4.6.2 (https://getbootstrap.com/)
  * Copyright 2011-2022 The Bootstrap Authors (https://github.com/twbs/bootstrap/graphs/contributors)
  * Licensed under MIT (https://github.com/twbs/bootstrap/blob/main/LICENSE)
  */

/*!
 * @license Copyright (c) 2003-2020, CKSource - Frederico Knabben. All rights reserved.
 * For licensing, see LICENSE.md.
 */

/*!
 * ApexCharts v3.36.2
 * (c) 2018-2022 ApexCharts
 * Released under the MIT License.
 */

/*!
 * Chart.js v2.9.4
 * https://www.chartjs.org
 * (c) 2020 Chart.js Contributors
 * Released under the MIT License
 */

/*!
 * Determine if an object is a Buffer
 *
 * @author   Feross Aboukhadijeh <https://feross.org>
 * @license  MIT
 */

/*!
 * Pusher JavaScript Library v7.6.0
 * https://pusher.com/
 *
 * Copyright 2020, Pusher
 * Released under the MIT licence.
 */

/*!
 * Select2 4.0.13
 * https://select2.github.io
 *
 * Released under the MIT license
 * https://github.com/select2/select2/blob/master/LICENSE.md
 */

/*!
 * Sizzle CSS Selector Engine v2.3.9
 * https://sizzlejs.com/
 *
 * Copyright JS Foundation and other contributors
 * Released under the MIT license
 * https://js.foundation/
 *
 * Date: 2022-12-19
 */

/*!
 * The buffer module from node.js, for the browser.
 *
 * @author   Feross Aboukhadijeh <https://feross.org>
 * @license  MIT
 */

/*!
 * Vue.js v2.7.14
 * (c) 2014-2022 Evan You
 * Released under the MIT License.
 */

/*!
 * jQuery JavaScript Library v3.6.3
 * https://jquery.com/
 *
 * Includes Sizzle.js
 * https://sizzlejs.com/
 *
 * Copyright OpenJS Foundation and other contributors
 * Released under the MIT license
 * https://jquery.org/license
 *
 * Date: 2022-12-20T21:28Z
 */

/*!
 * jQuery Mousewheel 3.1.13
 *
 * Copyright jQuery Foundation and other contributors
 * Released under the MIT license
 * http://jquery.org/license
 */

/*! ./browser */

/*! ./functions */

/*! ./html */

/*! ./image */

/*! ./js/init */

/*! ./json */

/*! ./modal */

/*! ./pdf */

/*! ./print */

/*! ./raw-html */

/*! ./sass/index.scss */

/*! ./src/index.js */

/*! exports provided: addWrapper, capitalizePrint, collectStyles, addHeader, cleanUp, isRawHTML */

/*! exports provided: default */

/*! http://mths.be/fromcodepoint v0.1.0 by @mathias */

/*! ieee754. BSD-3-Clause License. Feross Aboukhadijeh <https://feross.org/opensource> */

/*! no static exports found */

/*! regenerator-runtime -- Copyright (c) 2014-present, Facebook, Inc. -- license (MIT): https://github.com/facebook/regenerator/blob/main/LICENSE */

/*! svg.draggable.js - v2.2.2 - 2019-01-08
  * https://github.com/svgdotjs/svg.draggable.js
  * Copyright (c) 2019 Wout Fierens; Licensed MIT */

/*! svg.filter.js - v2.0.2 - 2016-02-24
  * https://github.com/wout/svg.filter.js
  * Copyright (c) 2016 Wout Fierens; Licensed MIT */

/*!**********************!*\
  !*** ./src/index.js ***!
  \**********************/

/*!***********************!*\
  !*** ./src/js/pdf.js ***!
  \***********************/

/*!************************!*\
  !*** ./src/js/html.js ***!
  \************************/

/*!************************!*\
  !*** ./src/js/init.js ***!
  \************************/

/*!************************!*\
  !*** ./src/js/json.js ***!
  \************************/

/*!*************************!*\
  !*** ./src/js/image.js ***!
  \*************************/

/*!*************************!*\
  !*** ./src/js/modal.js ***!
  \*************************/

/*!*************************!*\
  !*** ./src/js/print.js ***!
  \*************************/

/*!***************************!*\
  !*** ./src/js/browser.js ***!
  \***************************/

/*!****************************!*\
  !*** ./src/js/raw-html.js ***!
  \****************************/

/*!****************************!*\
  !*** multi ./src/index.js ***!
  \****************************/

/*!*****************************!*\
  !*** ./src/js/functions.js ***!
  \*****************************/

/*!*****************************!*\
  !*** ./src/sass/index.scss ***!
  \*****************************/

/**
  * Hopper 0.3.4
  * (c) 2019
    * @license MIT
    */

/**
 * @license
 * Lodash <https://lodash.com/>
 * Copyright OpenJS Foundation and other contributors <https://openjsf.org/>
 * Released under MIT license <https://lodash.com/license>
 * Based on Underscore.js 1.8.3 <http://underscorejs.org/LICENSE>
 * Copyright Jeremy Ashkenas, DocumentCloud and Investigative Reporters & Editors
 */

/**
 * @license almond 0.3.3 Copyright jQuery Foundation and other contributors.
 * Released under MIT license, http://github.com/requirejs/almond/LICENSE
 */

/**
 * Checks if an event is supported in the current execution environment.
 *
 * NOTE: This will not work correctly for non-generic events such as `change`,
 * `reset`, `load`, `error`, and `select`.
 *
 * Borrows from Modernizr.
 *
 * @param {string} eventNameSuffix Event name, e.g. "click".
 * @param {?boolean} capture Check if the capture phase is supported.
 * @return {boolean} True if the event is supported.
 * @internal
 * @license Modernizr 3.0.0pre (Custom Build) | MIT
 */

/**!
 * @fileOverview Kickass library to create and place poppers near their reference elements.
 * @version 1.16.1
 * @license
 * Copyright (c) 2016 Federico Zivolo and contributors
 *
 * Permission is hereby granted, free of charge, to any person obtaining a copy
 * of this software and associated documentation files (the "Software"), to deal
 * in the Software without restriction, including without limitation the rights
 * to use, copy, modify, merge, publish, distribute, sublicense, and/or sell
 * copies of the Software, and to permit persons to whom the Software is
 * furnished to do so, subject to the following conditions:
 *
 * The above copyright notice and this permission notice shall be included in all
 * copies or substantial portions of the Software.
 *
 * THE SOFTWARE IS PROVIDED "AS IS", WITHOUT WARRANTY OF ANY KIND, EXPRESS OR
 * IMPLIED, INCLUDING BUT NOT LIMITED TO THE WARRANTIES OF MERCHANTABILITY,
 * FITNESS FOR A PARTICULAR PURPOSE AND NONINFRINGEMENT. IN NO EVENT SHALL THE
 * AUTHORS OR COPYRIGHT HOLDERS BE LIABLE FOR ANY CLAIM, DAMAGES OR OTHER
 * LIABILITY, WHETHER IN AN ACTION OF CONTRACT, TORT OR OTHERWISE, ARISING FROM,
 * OUT OF OR IN CONNECTION WITH THE SOFTWARE OR THE USE OR OTHER DEALINGS IN THE
 * SOFTWARE.
 */

//! moment.js

//! moment.js locale configuration
